{
    "name": "ZuBLE",
    "rootNamespace": "",
    "references": [
        "GUID:f51ebe6a0ceec4240a699833d6309b23"
    ],
    "includePlatforms": [],
    "excludePlatforms": [],
    "allowUnsafeCode": false,
    "overrideReferences": false,
    "precompiledReferences": [],
    "autoReferenced": true,
    "defineConstraints": [],
    "versionDefines": [],
    "noEngineReferences": false
}