%YAML 1.1
%TAG !u! tag:unity3d.com,2011:
--- !u!1045 &1
EditorBuildSettings:
  m_ObjectHideFlags: 0
  serializedVersion: 2
  m_Scenes:
  - enabled: 1
    path: Assets/_CatBot/Scenes/DefaultController.unity
    guid: cf44e6840de02304f93a42e6c3d05ec5
  m_configObjects: {}
